{
  "project_info": {
    "project_number": "99874334076",
    "firebase_url": "https://gcp-tutorial-289506.firebaseio.com",
    "project_id": "gcp-tutorial-289506",
    "storage_bucket": "gcp-tutorial-289506.appspot.com"
  },
  "client": [
    {
      "client_info": {
        "mobilesdk_app_id": "1:99874334076:android:2ccf84ee0256090c34f0f9",
        "android_client_info": {
          "package_name": "com.example.appx0d"
        }
      },
      "oauth_client": [
        {
          "client_id": "99874334076-aft96n60tu7gfp1m844dmudl57g7113a.apps.googleusercontent.com",
          "client_type": 3
        }
      ],
      "api_key": [
        {
          "current_key": "AIzaSyBMgQnvH_otqwFHMqhCXnhJ5GbMC7z-hkY"
        }
      ],
      "services": {
        "appinvite_service": {
          "other_platform_oauth_client": [
            {
              "client_id": "99874334076-aft96n60tu7gfp1m844dmudl57g7113a.apps.googleusercontent.com",
              "client_type": 3
            }
          ]
        }
      }
    },
    {
      "client_info": {
        "mobilesdk_app_id": "1:99874334076:android:696157308ad543c334f0f9",
        "android_client_info": {
          "package_name": "com.example.appx0e"
        }
      },
      "oauth_client": [
        {
          "client_id": "99874334076-aft96n60tu7gfp1m844dmudl57g7113a.apps.googleusercontent.com",
          "client_type": 3
        }
      ],
      "api_key": [
        {
          "current_key": "AIzaSyBMgQnvH_otqwFHMqhCXnhJ5GbMC7z-hkY"
        }
      ],
      "services": {
        "appinvite_service": {
          "other_platform_oauth_client": [
            {
              "client_id": "99874334076-aft96n60tu7gfp1m844dmudl57g7113a.apps.googleusercontent.com",
              "client_type": 3
            }
          ]
        }
      }
    },
    {
      "client_info": {
        "mobilesdk_app_id": "1:99874334076:android:534799c90b1ec6fb34f0f9",
        "android_client_info": {
          "package_name": "com.example.uts_tokosepatu"
        }
      },
      "oauth_client": [
        {
          "client_id": "99874334076-aft96n60tu7gfp1m844dmudl57g7113a.apps.googleusercontent.com",
          "client_type": 3
        }
      ],
      "api_key": [
        {
          "current_key": "AIzaSyBMgQnvH_otqwFHMqhCXnhJ5GbMC7z-hkY"
        }
      ],
      "services": {
        "appinvite_service": {
          "other_platform_oauth_client": [
            {
              "client_id": "99874334076-aft96n60tu7gfp1m844dmudl57g7113a.apps.googleusercontent.com",
              "client_type": 3
            }
          ]
        }
      }
    }
  ],
  "configuration_version": "1"
}